// Jest Snapshot v1, https://goo.gl/fbAQLP

exports[`Test Case component Auto booleanify 1`] = `
<div>
  <span>
    Yes condition was met!
  </span>
</div>
`;

exports[`Test Case component Hide when false 1`] = `<div />`;

exports[`Test Case component Multiple 1`] = `
<div>
  <span>
    First
  </span>
  <span>
    Third
  </span>
</div>
`;

exports[`Test Case component Show when true 1`] = `
<div>
  <span>
    Hello world!
  </span>
</div>
`;
