// Jest Snapshot v1, https://goo.gl/fbAQLP

exports[`Ternary operator Proper ternary (falsy) 1`] = `
<div>
  Falsy
</div>
`;

exports[`Ternary operator Proper ternary (truthy) 1`] = `
<div>
  Truthy
</div>
`;

exports[`Ternary operator Proper ternary (with function) 1`] = `
<div>
  Truthy
</div>
`;
